<?xml version="1.0"?>
<svg xmlns:rdf="http://www.w3.org/1999/02/22-rdf-syntax-ns#" xmlns="http://www.w3.org/2000/svg" xmlns:cc="http://creativecommons.org/ns#" xmlns:xlink="http://www.w3.org/1999/xlink" xmlns:dc="http://purl.org/dc/elements/1.1/" xmlns:svg="http://www.w3.org/2000/svg" id="svg2869" viewBox="0 0 64 64" version="1.1">
  <title id="title3925">teeth_whitening</title>
  <defs id="defs2871">
    <filter id="filter3677">
      <feGaussianBlur id="feGaussianBlur3679" stdDeviation="0.15253858"/>
    </filter>
    <filter id="filter3783">
      <feGaussianBlur id="feGaussianBlur3785" stdDeviation="0.19402429"/>
    </filter>
    <filter id="filter3831" y="-.37159" width="1.1578" x="-.078919" height="1.7432">
      <feGaussianBlur id="feGaussianBlur3833" stdDeviation="0.2500937"/>
    </filter>
    <radialGradient id="radialGradient3851" gradientUnits="userSpaceOnUse" cy="21.15" cx="7.8372" gradientTransform="matrix(.47006 .46334 -.97629 .99044 24.802 -4.7356)" r="14.233">
      <stop id="stop3815" stop-color="#b3b3b3" offset="0"/>
      <stop id="stop3817" stop-color="#b3b3b3" stop-opacity="0" offset="1"/>
    </radialGradient>
    <radialGradient id="radialGradient3853" gradientUnits="userSpaceOnUse" cy="13.434" cx="-4.3647" gradientTransform="matrix(.47336 -.13627 .21815 2.6754 -5.2292 -22.876)" r="2.6587">
      <stop id="stop3837" stop-color="#fff" offset="0"/>
      <stop id="stop3839" stop-color="#fff" stop-opacity="0" offset="1"/>
    </radialGradient>
    <radialGradient id="radialGradient3855" gradientUnits="userSpaceOnUse" cy="22.237" cx="3.9933" gradientTransform="matrix(-.60193 1.8763 -1.7312 -.55539 43.132 22.971)" r="3.0375">
      <stop id="stop3825" stop-color="#e6e6e6" offset="0"/>
      <stop id="stop3827" stop-color="#ccc" offset="1"/>
    </radialGradient>
    <filter id="filter3885">
      <feGaussianBlur id="feGaussianBlur3887" stdDeviation="0.58053061"/>
    </filter>
    <linearGradient id="linearGradient3905" y2="39.15" gradientUnits="userSpaceOnUse" y1="5.5076" x2="6.8815" x1="9.9399">
      <stop id="stop3899" stop-color="#04a" offset="0"/>
      <stop id="stop3901" stop-color="#80b3ff" offset="1"/>
    </linearGradient>
  </defs>
  <g id="layer1">
    <g id="g3907">
      <rect id="rect3881" ry="1.9108" height="60.404" width="63.873" stroke="#a29b9b" stroke-linecap="round" y="2.4491" x="1.1481" stroke-width=".10142" fill="url(#linearGradient3905)"/>
      <g id="g3867" transform="matrix(1.3887 0 0 1.3092 19.15 -1.477)" fill="#fff">
        <path id="path3869" stroke="#a29b9b" stroke-width=".1" d="m2.9953 43.836c-0.1714 2.764-5.8941-12.7-6.4184-20.668-2.5503-6.1845-3.7474-12.426 0-16.03 3.8413-3.6932 8.2957-2.1501 12.082-0.9067 4.2371-0.2021 8.2761-1.3543 10.823 0.7057 4.943 3.997 2.304 11.224 1.51 16.836-2.29 6.645-1.885 13.937-7.173 19.861-0.929-6.518-4.3492-11.739-5.3212-17.54-0.8652-0.422-5.2824 14.192-5.5025 17.742z"/>
        <path id="path3871" filter="url(#filter3677)" stroke-width="0" transform="matrix(2.4031 .37718 -.358 .78263 11.556 1.1469)" d="m-1.3381 13.297c0 3.7214-0.79163 6.7381-1.7682 6.7381-0.97652 0-1.7682-3.0168-1.7682-6.7381s0.79163-6.7381 1.7682-6.7381c0.97652 0 1.7682 3.0168 1.7682 6.7381z"/>
        <path id="path3873" filter="url(#filter3677)" stroke-width="0" transform="matrix(-.37718 2.4031 -.78263 -.358 25.77 23.467)" d="m-1.3381 13.297c0 3.7214-0.79163 6.7381-1.7682 6.7381-0.97652 0-1.7682-3.0168-1.7682-6.7381s0.79163-6.7381 1.7682-6.7381c0.97652 0 1.7682 3.0168 1.7682 6.7381z"/>
        <path id="path3875" filter="url(#filter3783)" stroke-width="0" transform="matrix(.45229 -.12119 .12119 .45229 .79539 6.2831)" d="m4.6832 18.363c0 2.9296-1.2623 5.3045-2.8195 5.3045s-2.8195-2.3749-2.8195-5.3045 1.2623-5.3045 2.8195-5.3045 2.8195 2.3749 2.8195 5.3045z"/>
        <path id="path3877" filter="url(#filter3831)" stroke="#e5d5d5" stroke-width=".39985px" d="m3.6999 21.33c5.6527 3.1074 5.6429 0.49628 7.6056-0.12289"/>
        <path id="path3879" filter="url(#filter3783)" stroke-width="0" transform="matrix(-.45229 -.12119 -.12119 .45229 13.527 5.9964)" d="m4.6832 18.363c0 2.9296-1.2623 5.3045-2.8195 5.3045s-2.8195-2.3749-2.8195-5.3045 1.2623-5.3045 2.8195-5.3045 2.8195 2.3749 2.8195 5.3045z"/>
      </g>
      <g id="g3843" transform="matrix(1.3887 0 0 1.3092 19.15 -1.477)">
        <path id="path3803" stroke="#a29b9b" stroke-width=".1" fill="url(#radialGradient3851)" d="m2.9953 43.836c-0.1714 2.764-5.8941-12.7-6.4184-20.668-2.5503-6.1845-3.7474-12.426 0-16.03 3.8413-3.6932 8.2957-2.1501 12.082-0.9067 4.2371-0.2021 8.2761-1.3543 10.823 0.7057 4.943 3.997 2.304 11.224 1.51 16.836-2.29 6.645-1.885 13.937-7.173 19.861-0.929-6.518-4.3492-11.739-5.3212-17.54-0.8652-0.422-5.2824 14.192-5.5025 17.742z"/>
        <path id="path3667" d="m-1.3381 13.297c0 3.7214-0.79163 6.7381-1.7682 6.7381-0.97652 0-1.7682-3.0168-1.7682-6.7381s0.79163-6.7381 1.7682-6.7381c0.97652 0 1.7682 3.0168 1.7682 6.7381z" transform="matrix(2.4031 .37718 -.358 .78263 11.556 1.1469)" filter="url(#filter3677)" stroke-width="0" fill="#fff"/>
        <path id="path3681" d="m-1.3381 13.297c0 3.7214-0.79163 6.7381-1.7682 6.7381-0.97652 0-1.7682-3.0168-1.7682-6.7381s0.79163-6.7381 1.7682-6.7381c0.97652 0 1.7682 3.0168 1.7682 6.7381z" transform="matrix(-.37718 2.4031 -.78263 -.358 25.77 23.467)" filter="url(#filter3677)" stroke-width="0" fill="url(#radialGradient3853)"/>
        <path id="path3765" d="m4.6832 18.363c0 2.9296-1.2623 5.3045-2.8195 5.3045s-2.8195-2.3749-2.8195-5.3045 1.2623-5.3045 2.8195-5.3045 2.8195 2.3749 2.8195 5.3045z" transform="matrix(.45229 -.12119 .12119 .45229 .79539 6.2831)" filter="url(#filter3783)" stroke-width="0" fill="#e6e6e6"/>
        <path id="path3787" d="m3.6999 21.33c5.6527 3.1074 5.6429 0.49628 7.6056-0.12289" filter="url(#filter3831)" stroke="#e5d5d5" stroke-width=".39985px" fill="none"/>
        <path id="path3821" d="m4.6832 18.363c0 2.9296-1.2623 5.3045-2.8195 5.3045s-2.8195-2.3749-2.8195-5.3045 1.2623-5.3045 2.8195-5.3045 2.8195 2.3749 2.8195 5.3045z" transform="matrix(-.45229 -.12119 -.12119 .45229 13.527 5.9964)" filter="url(#filter3783)" stroke-width="0" fill="url(#radialGradient3855)"/>
      </g>
      <path id="path3883" d="m-17.204 40.106-9.41-7.7577 1.8627 12.052-3.722-11.614-4.949 11.146 3.1476-11.782-10.189 6.7011 9.0179-8.2102-12.195 0.12851 12.025-2.0314-10.328-6.4849 11.214 4.7924-5.1828-11.039 6.8432 10.095 1.6083-12.089 0.29933 12.192 7.8888-9.3004-6.3396 10.418 11.665-3.559-10.966 5.3369 11.737 3.3124-12.11-1.4388 8.083 9.1321z" transform="matrix(.81648 0 0 .81648 74.122 -8.3813)" filter="url(#filter3885)" stroke-width="0" fill="#fff"/>
    </g>
  </g>
  <metadata>
    <rdf:RDF>
      <cc:Work>
        <dc:format>image/svg+xml</dc:format>
        <dc:type rdf:resource="http://purl.org/dc/dcmitype/StillImage"/>
        <cc:license rdf:resource="http://creativecommons.org/licenses/publicdomain/"/>
        <dc:publisher>
          <cc:Agent rdf:about="http://openclipart.org/">
            <dc:title>Openclipart</dc:title>
          </cc:Agent>
        </dc:publisher>
        <dc:title>teeth_whitening</dc:title>
        <dc:date>2010-04-03T19:08:07</dc:date>
        <dc:description>tooth</dc:description>
        <dc:source>http://openclipart.org/detail/36805/teeth_whitening-by-netalloy</dc:source>
        <dc:creator>
          <cc:Agent>
            <dc:title>netalloy</dc:title>
          </cc:Agent>
        </dc:creator>
        <dc:subject>
          <rdf:Bag>
            <rdf:li>clip art</rdf:li>
            <rdf:li>clipart</rdf:li>
            <rdf:li>dental</rdf:li>
            <rdf:li>dentist</rdf:li>
            <rdf:li>medical</rdf:li>
            <rdf:li>smiling tooth</rdf:li>
            <rdf:li>teeth whitening</rdf:li>
            <rdf:li>tooth</rdf:li>
          </rdf:Bag>
        </dc:subject>
      </cc:Work>
      <cc:License rdf:about="http://creativecommons.org/licenses/publicdomain/">
        <cc:permits rdf:resource="http://creativecommons.org/ns#Reproduction"/>
        <cc:permits rdf:resource="http://creativecommons.org/ns#Distribution"/>
        <cc:permits rdf:resource="http://creativecommons.org/ns#DerivativeWorks"/>
      </cc:License>
    </rdf:RDF>
  </metadata>
</svg>
